{
  "formatVersion": 1,
  "database": {
    "version": 3,
    "identityHash": "3e81e0925bab6702afa5173501baee8e",
    "entities": [
      {
        "tableName": "weight",
        "createSql": "CREATE TABLE IF NOT EXISTS `${TABLE_NAME}` (`_id` INTEGER PRIMARY KEY AUTOINCREMENT NOT NULL, `timestamp` INTEGER NOT NULL, `comment` TEXT NOT NULL, `weight` REAL NOT NULL)",
        "fields": [
          {
            "fieldPath": "_id",
            "columnName": "_id",
            "affinity": "INTEGER",
            "notNull": true
          },
          {
            "fieldPath": "timestamp",
            "columnName": "timestamp",
            "affinity": "INTEGER",
            "notNull": true
          },
          {
            "fieldPath": "comment",
            "columnName": "comment",
            "affinity": "TEXT",
            "notNull": true
          },
          {
            "fieldPath": "weight",
            "columnName": "weight",
            "affinity": "REAL",
            "notNull": true
          }
        ],
        "primaryKey": {
          "columnNames": [
            "_id"
          ],
          "autoGenerate": true
        },
        "indices": [
          {
            "name": "index_weight_timestamp",
            "unique": false,
            "columnNames": [
              "timestamp"
            ],
            "createSql": "CREATE INDEX IF NOT EXISTS `index_weight_timestamp` ON `${TABLE_NAME}` (`timestamp`)"
          }
        ],
        "foreignKeys": []
      },
      {
        "tableName": "diary",
        "createSql": "CREATE TABLE IF NOT EXISTS `${TABLE_NAME}` (`_id` INTEGER PRIMARY KEY AUTOINCREMENT NOT NULL, `timestamp` INTEGER NOT NULL, `comment` TEXT NOT NULL, `diary` TEXT NOT NULL, `state` INTEGER NOT NULL)",
        "fields": [
          {
            "fieldPath": "_id",
            "columnName": "_id",
            "affinity": "INTEGER",
            "notNull": true
          },
          {
            "fieldPath": "timestamp",
            "columnName": "timestamp",
            "affinity": "INTEGER",
            "notNull": true
          },
          {
            "fieldPath": "comment",
            "columnName": "comment",
            "affinity": "TEXT",
            "notNull": true
          },
          {
            "fieldPath": "diary",
            "columnName": "diary",
            "affinity": "TEXT",
            "notNull": true
          },
          {
            "fieldPath": "state",
            "columnName": "state",
            "affinity": "INTEGER",
            "notNull": true
          }
        ],
        "primaryKey": {
          "columnNames": [
            "_id"
          ],
          "autoGenerate": true
        },
        "indices": [
          {
            "name": "index_diary_timestamp",
            "unique": false,
            "columnNames": [
              "timestamp"
            ],
            "createSql": "CREATE INDEX IF NOT EXISTS `index_diary_timestamp` ON `${TABLE_NAME}` (`timestamp`)"
          }
        ],
        "foreignKeys": []
      },
      {
        "tableName": "bloodpressure",
        "createSql": "CREATE TABLE IF NOT EXISTS `${TABLE_NAME}` (`_id` INTEGER PRIMARY KEY AUTOINCREMENT NOT NULL, `timestamp` INTEGER NOT NULL, `comment` TEXT NOT NULL, `sys` INTEGER NOT NULL, `dia` INTEGER NOT NULL, `pulse` INTEGER NOT NULL)",
        "fields": [
          {
            "fieldPath": "_id",
            "columnName": "_id",
            "affinity": "INTEGER",
            "notNull": true
          },
          {
            "fieldPath": "timestamp",
            "columnName": "timestamp",
            "affinity": "INTEGER",
            "notNull": true
          },
          {
            "fieldPath": "comment",
            "columnName": "comment",
            "affinity": "TEXT",
            "notNull": true
          },
          {
            "fieldPath": "sys",
            "columnName": "sys",
            "affinity": "INTEGER",
            "notNull": true
          },
          {
            "fieldPath": "dia",
            "columnName": "dia",
            "affinity": "INTEGER",
            "notNull": true
          },
          {
            "fieldPath": "pulse",
            "columnName": "pulse",
            "affinity": "INTEGER",
            "notNull": true
          }
        ],
        "primaryKey": {
          "columnNames": [
            "_id"
          ],
          "autoGenerate": true
        },
        "indices": [
          {
            "name": "index_bloodpressure_timestamp",
            "unique": false,
            "columnNames": [
              "timestamp"
            ],
            "createSql": "CREATE INDEX IF NOT EXISTS `index_bloodpressure_timestamp` ON `${TABLE_NAME}` (`timestamp`)"
          }
        ],
        "foreignKeys": []
      }
    ],
    "views": [],
    "setupQueries": [
      "CREATE TABLE IF NOT EXISTS room_master_table (id INTEGER PRIMARY KEY,identity_hash TEXT)",
      "INSERT OR REPLACE INTO room_master_table (id,identity_hash) VALUES(42, '3e81e0925bab6702afa5173501baee8e')"
    ]
  }
}